{
    "app-id": "org.gnome.clocksDevel",
    "runtime": "org.gnome.Platform",
    "runtime-version": "master",
    "sdk": "org.gnome.Sdk",
    "command": "gnome-clocks",
    "tags": ["nightly"],
    "finish-args": [
        "--share=ipc",
        "--socket=fallback-x11",
        "--socket=wayland",
        "--socket=pulseaudio",
        "--share=network",
        "--system-talk-name=org.freedesktop.GeoClue2",
        "--filesystem=xdg-run/dconf",
        "--filesystem=~/.config/dconf:ro",
        "--talk-name=ca.desrt.dconf",
        "--env=DCONF_USER_CONFIG_DIR=.config/dconf"
    ],
    "cleanup": ["/include", "/lib/pkgconfig",
                "/share/pkgconfig", "/share/aclocal",
                "/man", "/share/man", "/share/gtk-doc",
                "/share/vala",
                "*.la", "*.a"],
    "modules": [
        {
            "name": "geocode-glib",
            "buildsystem": "meson",
            "config-opts": [ "-Denable-installed-tests=false", "-Denable-introspection=true", "-Denable-gtk-doc=false" ],
            "sources": [
                {
                    "type": "git",
                    "url": "https://gitlab.gnome.org/GNOME/geocode-glib.git"
                }
            ]
        },
        {
            "name": "libgweather",
            "buildsystem": "meson",
            "config-opts": [
              "-Dglade_catalog=false",
              "-Dgtk_doc=false"
            ],
            "sources": [
                {
                    "type": "git",
                    "url": "https://gitlab.gnome.org/GNOME/libgweather.git",
                    "tag": "40.0"
                }
            ]
        },
        {
            "name": "gnome-desktop",
            "buildsystem": "meson",
            "config-opts": [
              "-Ddebug_tools=false",
              "-Dudev=disabled",
              "-Dgtk_doc=false",
              "-Ddesktop_docs=false"
            ],
            "sources": [
                {
                    "type": "git",
                    "url": "https://gitlab.gnome.org/GNOME/gnome-desktop.git"
                }
            ]
        },
        {
            "name": "gsound",
            "buildsystem": "meson",
            "sources": [
                {
                    "type": "git",
                    "url": "https://gitlab.gnome.org/GNOME/gsound.git"
                }
            ],
            "modules": [
                {
                    "name": "libcanberra",
                    "sources": [
                        {
                            "type": "archive",
                            "url": "http://0pointer.de/lennart/projects/libcanberra/libcanberra-0.30.tar.xz",
                            "sha256": "c2b671e67e0c288a69fc33dc1b6f1b534d07882c2aceed37004bf48c601afa72"
                        }
                    ],
                    "config-opts": [
                        "--disable-alsa",
                        "--disable-null",
                        "--disable-oss"
                    ]
                }
            ]
        },
        {
            "name": "libhandy",
            "buildsystem": "meson",
            "config-opts": [
                "-Dtests=false",
                "-Dexamples=false",
                "-Dglade_catalog=disabled"
            ],
            "sources": [
                {
                    "type": "git",
                    "url": "https://gitlab.gnome.org/GNOME/libhandy.git"
                }
            ]
        },
        {
            "name": "sound-theme-freedesktop",
            "sources": [
                {
                    "type": "archive",
                    "url": "http://people.freedesktop.org/~mccann/dist/sound-theme-freedesktop-0.8.tar.bz2",
                    "sha256": "cb518b20eef05ec2e82dda1fa89a292c1760dc023aba91b8aa69bafac85e8a14"
                }
            ],
            "modules": [
                {
                    "name": "intltool",
                    "cleanup": [ "*" ],
                    "sources": [
                        {
                            "type": "archive",
                            "url": "https://launchpad.net/intltool/trunk/0.51.0/+download/intltool-0.51.0.tar.gz",
                            "sha256": "67c74d94196b153b774ab9f89b2fa6c6ba79352407037c8c14d5aeb334e959cd"
                        }
                    ]
                }
            ]
        },
        {
            "name": "gnome-clocks",
            "buildsystem": "meson",
            "config-opts": [
                "-Dprofile=development",
                "-Ddocs=false"
            ],
            "sources": [
                {
                    "type": "git",
                    "url": "https://gitlab.gnome.org/GNOME/gnome-clocks.git"
                }
            ]
        }
    ]
}
